%YAML 1.1
%TAG !u! tag:unity3d.com,2011:
--- !u!29 &1
SceneSettings:
  m_ObjectHideFlags: 0
  m_PVSData: 
  m_PVSObjectsArray: []
  m_PVSPortalsArray: []
  m_OcclusionBakeSettings:
    smallestOccluder: 5
    smallestHole: 0.25
    backfaceThreshold: 100
--- !u!104 &2
RenderSettings:
  m_ObjectHideFlags: 0
  serializedVersion: 6
  m_Fog: 1
  m_FogColor: {r: 0.64705884, g: 0.95618665, b: 1, a: 1}
  m_FogMode: 2
  m_FogDensity: 0.005
  m_LinearFogStart: 6
  m_LinearFogEnd: 15
  m_AmbientSkyColor: {r: 0.41911763, g: 0.41911763, b: 0.41911763, a: 1}
  m_AmbientEquatorColor: {r: 0.3990052, g: 0.42342013, b: 0.44117647, a: 1}
  m_AmbientGroundColor: {r: 0.2352941, g: 0.2352941, b: 0.2352941, a: 1}
  m_AmbientIntensity: 1
  m_AmbientMode: 3
  m_SkyboxMaterial: {fileID: 0}
  m_HaloStrength: 0.5
  m_FlareStrength: 1
  m_FlareFadeSpeed: 3
  m_HaloTexture: {fileID: 0}
  m_SpotCookie: {fileID: 10001, guid: 0000000000000000e000000000000000, type: 0}
  m_DefaultReflectionMode: 0
  m_DefaultReflectionResolution: 128
  m_ReflectionBounces: 1
  m_ReflectionIntensity: 1
  m_CustomReflection: {fileID: 0}
  m_Sun: {fileID: 0}
--- !u!157 &4
LightmapSettings:
  m_ObjectHideFlags: 0
  serializedVersion: 6
  m_GIWorkflowMode: 0
  m_LightmapsMode: 1
  m_GISettings:
    serializedVersion: 2
    m_BounceScale: 1
    m_IndirectOutputScale: 1
    m_AlbedoBoost: 1
    m_TemporalCoherenceThreshold: 1
    m_EnvironmentLightingMode: 0
    m_EnableBakedLightmaps: 1
    m_EnableRealtimeLightmaps: 1
  m_LightmapEditorSettings:
    serializedVersion: 3
    m_Resolution: 2
    m_BakeResolution: 40
    m_TextureWidth: 1024
    m_TextureHeight: 1024
    m_AOMaxDistance: 1
    m_Padding: 2
    m_CompAOExponent: 0
    m_LightmapParameters: {fileID: 0}
    m_TextureCompression: 1
    m_FinalGather: 0
    m_FinalGatherRayCount: 1024
    m_ReflectionCompression: 2
  m_LightingDataAsset: {fileID: 0}
  m_RuntimeCPUUsage: 25
--- !u!196 &5
NavMeshSettings:
  serializedVersion: 2
  m_ObjectHideFlags: 0
  m_BuildSettings:
    serializedVersion: 2
    agentRadius: 0.5
    agentHeight: 2
    agentSlope: 45
    agentClimb: 0.4
    ledgeDropHeight: 0
    maxJumpAcrossDistance: 0
    accuratePlacement: 0
    minRegionArea: 2
    cellSize: 0.16666667
    manualCellSize: 0
  m_NavMeshData: {fileID: 0}
--- !u!1 &359984510
GameObject:
  m_ObjectHideFlags: 0
  m_PrefabParentObject: {fileID: 100002, guid: 9b6c3d01c33718b45bf7737e8c87415d, type: 3}
  m_PrefabInternal: {fileID: 1144759545}
  serializedVersion: 4
  m_Component:
  - 4: {fileID: 359984511}
  - 33: {fileID: 359984513}
  - 23: {fileID: 359984512}
  m_Layer: 0
  m_Name: Chest
  m_TagString: Untagged
  m_Icon: {fileID: 0}
  m_NavMeshLayer: 0
  m_StaticEditorFlags: 0
  m_IsActive: 1
--- !u!4 &359984511
Transform:
  m_ObjectHideFlags: 0
  m_PrefabParentObject: {fileID: 400002, guid: 9b6c3d01c33718b45bf7737e8c87415d, type: 3}
  m_PrefabInternal: {fileID: 1144759545}
  m_GameObject: {fileID: 359984510}
  m_LocalRotation: {x: 0.000000021855694, y: 0, z: 0, w: 1}
  m_LocalPosition: {x: 0, y: 0.0006878967, z: -0.0155268395}
  m_LocalScale: {x: 1, y: 1, z: 1}
  m_Children: []
  m_Father: {fileID: 1144759546}
  m_RootOrder: 0
--- !u!23 &359984512
MeshRenderer:
  m_ObjectHideFlags: 0
  m_PrefabParentObject: {fileID: 2300000, guid: 9b6c3d01c33718b45bf7737e8c87415d,
    type: 3}
  m_PrefabInternal: {fileID: 1144759545}
  m_GameObject: {fileID: 359984510}
  m_Enabled: 1
  m_CastShadows: 1
  m_ReceiveShadows: 1
  m_Materials:
  - {fileID: 2100000, guid: 3d92c13a401928e4da7e22e76225a5bc, type: 2}
  m_SubsetIndices: 
  m_StaticBatchRoot: {fileID: 0}
  m_UseLightProbes: 1
  m_ReflectionProbeUsage: 1
  m_ProbeAnchor: {fileID: 0}
  m_ScaleInLightmap: 1
  m_PreserveUVs: 0
  m_IgnoreNormalsForChartDetection: 0
  m_ImportantGI: 0
  m_MinimumChartSize: 4
  m_AutoUVMaxDistance: 0.5
  m_AutoUVMaxAngle: 89
  m_LightmapParameters: {fileID: 0}
  m_SortingLayerID: 0
  m_SortingOrder: 0
--- !u!33 &359984513
MeshFilter:
  m_ObjectHideFlags: 0
  m_PrefabParentObject: {fileID: 3300000, guid: 9b6c3d01c33718b45bf7737e8c87415d,
    type: 3}
  m_PrefabInternal: {fileID: 1144759545}
  m_GameObject: {fileID: 359984510}
  m_Mesh: {fileID: 4300002, guid: 9b6c3d01c33718b45bf7737e8c87415d, type: 3}
--- !u!1 &470899327
GameObject:
  m_ObjectHideFlags: 0
  m_PrefabParentObject: {fileID: 0}
  m_PrefabInternal: {fileID: 0}
  serializedVersion: 4
  m_Component:
  - 4: {fileID: 470899328}
  - 33: {fileID: 470899331}
  - 64: {fileID: 470899330}
  - 23: {fileID: 470899329}
  m_Layer: 0
  m_Name: Quad 111
  m_TagString: Untagged
  m_Icon: {fileID: 0}
  m_NavMeshLayer: 0
  m_StaticEditorFlags: 0
  m_IsActive: 1
--- !u!4 &470899328
Transform:
  m_ObjectHideFlags: 0
  m_PrefabParentObject: {fileID: 0}
  m_PrefabInternal: {fileID: 0}
  m_GameObject: {fileID: 470899327}
  m_LocalRotation: {x: 0, y: 0, z: 0, w: 1}
  m_LocalPosition: {x: 3.52, y: 2.2, z: -0.34}
  m_LocalScale: {x: 0.6957001, y: 0.69570047, z: 0.6957005}
  m_Children: []
  m_Father: {fileID: 939009400}
  m_RootOrder: 0
--- !u!23 &470899329
MeshRenderer:
  m_ObjectHideFlags: 0
  m_PrefabParentObject: {fileID: 0}
  m_PrefabInternal: {fileID: 0}
  m_GameObject: {fileID: 470899327}
  m_Enabled: 1
  m_CastShadows: 1
  m_ReceiveShadows: 1
  m_Materials:
  - {fileID: 2100000, guid: ea94bc05f4e812349a43dff1264c21ec, type: 2}
  m_SubsetIndices: 
  m_StaticBatchRoot: {fileID: 0}
  m_UseLightProbes: 1
  m_ReflectionProbeUsage: 1
  m_ProbeAnchor: {fileID: 0}
  m_ScaleInLightmap: 1
  m_PreserveUVs: 1
  m_IgnoreNormalsForChartDetection: 0
  m_ImportantGI: 0
  m_MinimumChartSize: 4
  m_AutoUVMaxDistance: 0.5
  m_AutoUVMaxAngle: 89
  m_LightmapParameters: {fileID: 0}
  m_SortingLayerID: 0
  m_SortingOrder: 0
--- !u!64 &470899330
MeshCollider:
  m_ObjectHideFlags: 0
  m_PrefabParentObject: {fileID: 0}
  m_PrefabInternal: {fileID: 0}
  m_GameObject: {fileID: 470899327}
  m_Material: {fileID: 0}
  m_IsTrigger: 0
  m_Enabled: 1
  serializedVersion: 2
  m_Convex: 0
  m_Mesh: {fileID: 10210, guid: 0000000000000000e000000000000000, type: 0}
--- !u!33 &470899331
MeshFilter:
  m_ObjectHideFlags: 0
  m_PrefabParentObject: {fileID: 0}
  m_PrefabInternal: {fileID: 0}
  m_GameObject: {fileID: 470899327}
  m_Mesh: {fileID: 10210, guid: 0000000000000000e000000000000000, type: 0}
--- !u!1001 &638350556
Prefab:
  m_ObjectHideFlags: 0
  serializedVersion: 2
  m_Modification:
    m_TransformParent: {fileID: 0}
    m_Modifications:
    - target: {fileID: 400000, guid: 12f0ed80d834e6246b96b9cf113fedc3, type: 3}
      propertyPath: m_LocalPosition.x
      value: .335000008
      objectReference: {fileID: 0}
    - target: {fileID: 400000, guid: 12f0ed80d834e6246b96b9cf113fedc3, type: 3}
      propertyPath: m_LocalPosition.y
      value: 0
      objectReference: {fileID: 0}
    - target: {fileID: 400000, guid: 12f0ed80d834e6246b96b9cf113fedc3, type: 3}
      propertyPath: m_LocalPosition.z
      value: -.0500000007
      objectReference: {fileID: 0}
    - target: {fileID: 400000, guid: 12f0ed80d834e6246b96b9cf113fedc3, type: 3}
      propertyPath: m_LocalRotation.x
      value: 2.18556941e-08
      objectReference: {fileID: 0}
    - target: {fileID: 400000, guid: 12f0ed80d834e6246b96b9cf113fedc3, type: 3}
      propertyPath: m_LocalRotation.y
      value: 0
      objectReference: {fileID: 0}
    - target: {fileID: 400000, guid: 12f0ed80d834e6246b96b9cf113fedc3, type: 3}
      propertyPath: m_LocalRotation.z
      value: -0
      objectReference: {fileID: 0}
    - target: {fileID: 400000, guid: 12f0ed80d834e6246b96b9cf113fedc3, type: 3}
      propertyPath: m_LocalRotation.w
      value: 1
      objectReference: {fileID: 0}
    - target: {fileID: 400000, guid: 12f0ed80d834e6246b96b9cf113fedc3, type: 3}
      propertyPath: m_RootOrder
      value: 2
      objectReference: {fileID: 0}
    - target: {fileID: 2300000, guid: 12f0ed80d834e6246b96b9cf113fedc3, type: 3}
      propertyPath: m_Materials.Array.data[0]
      value: 
      objectReference: {fileID: 2100000, guid: c6010fd8a9033e94399bc3b59a4be473, type: 2}
    m_RemovedComponents: []
  m_ParentPrefab: {fileID: 100100000, guid: 12f0ed80d834e6246b96b9cf113fedc3, type: 3}
  m_RootGameObject: {fileID: 1649259512}
  m_IsPrefabParent: 0
--- !u!1 &771998988
GameObject:
  m_ObjectHideFlags: 0
  m_PrefabParentObject: {fileID: 0}
  m_PrefabInternal: {fileID: 0}
  serializedVersion: 4
  m_Component:
  - 4: {fileID: 771998990}
  - 108: {fileID: 771998989}
  m_Layer: 0
  m_Name: Directional light
  m_TagString: Untagged
  m_Icon: {fileID: 0}
  m_NavMeshLayer: 0
  m_StaticEditorFlags: 0
  m_IsActive: 1
--- !u!108 &771998989
Light:
  m_ObjectHideFlags: 0
  m_PrefabParentObject: {fileID: 0}
  m_PrefabInternal: {fileID: 0}
  m_GameObject: {fileID: 771998988}
  m_Enabled: 1
  serializedVersion: 6
  m_Type: 1
  m_Color: {r: 1, g: 0.9802231, b: 0.9044118, a: 1}
  m_Intensity: 1
  m_Range: 10
  m_SpotAngle: 30
  m_CookieSize: 10
  m_Shadows:
    m_Type: 2
    m_Resolution: -1
    m_Strength: 0.65
    m_Bias: 0.08
    m_NormalBias: 0
    m_NearPlane: 0.2
  m_Cookie: {fileID: 0}
  m_DrawHalo: 0
  m_Flare: {fileID: 0}
  m_RenderMode: 0
  m_CullingMask:
    serializedVersion: 2
    m_Bits: 4294967295
  m_Lightmapping: 4
  m_BounceIntensity: 0
  m_ShadowRadius: 0
  m_ShadowAngle: 0
  m_AreaSize: {x: 1, y: 1}
--- !u!4 &771998990
Transform:
  m_ObjectHideFlags: 0
  m_PrefabParentObject: {fileID: 0}
  m_PrefabInternal: {fileID: 0}
  m_GameObject: {fileID: 771998988}
  m_LocalRotation: {x: 0.36387438, y: -0.35043842, z: 0.11484606, w: 0.8553355}
  m_LocalPosition: {x: 4.07, y: 5.01, z: 0.17}
  m_LocalScale: {x: 1, y: 1, z: 1}
  m_Children: []
  m_Father: {fileID: 0}
  m_RootOrder: 8
--- !u!1001 &841636382
Prefab:
  m_ObjectHideFlags: 0
  serializedVersion: 2
  m_Modification:
    m_TransformParent: {fileID: 0}
    m_Modifications:
    - target: {fileID: 400000, guid: a0bd7523e1445f147886c60f88830141, type: 3}
      propertyPath: m_LocalPosition.x
      value: -2.79999995
      objectReference: {fileID: 0}
    - target: {fileID: 400000, guid: a0bd7523e1445f147886c60f88830141, type: 3}
      propertyPath: m_LocalPosition.y
      value: 0
      objectReference: {fileID: 0}
    - target: {fileID: 400000, guid: a0bd7523e1445f147886c60f88830141, type: 3}
      propertyPath: m_LocalPosition.z
      value: 0
      objectReference: {fileID: 0}
    - target: {fileID: 400000, guid: a0bd7523e1445f147886c60f88830141, type: 3}
      propertyPath: m_LocalRotation.x
      value: 0
      objectReference: {fileID: 0}
    - target: {fileID: 400000, guid: a0bd7523e1445f147886c60f88830141, type: 3}
      propertyPath: m_LocalRotation.y
      value: .359963626
      objectReference: {fileID: 0}
    - target: {fileID: 400000, guid: a0bd7523e1445f147886c60f88830141, type: 3}
      propertyPath: m_LocalRotation.z
      value: 0
      objectReference: {fileID: 0}
    - target: {fileID: 400000, guid: a0bd7523e1445f147886c60f88830141, type: 3}
      propertyPath: m_LocalRotation.w
      value: .932966352
      objectReference: {fileID: 0}
    - target: {fileID: 400000, guid: a0bd7523e1445f147886c60f88830141, type: 3}
      propertyPath: m_RootOrder
      value: 3
      objectReference: {fileID: 0}
    - target: {fileID: 2300000, guid: a0bd7523e1445f147886c60f88830141, type: 3}
      propertyPath: m_Materials.Array.data[0]
      value: 
      objectReference: {fileID: 2100000, guid: cd07d8a28e2acb9468ecb30a6f45820b, type: 2}
    - target: {fileID: 100000, guid: a0bd7523e1445f147886c60f88830141, type: 3}
      propertyPath: m_StaticEditorFlags
      value: 0
      objectReference: {fileID: 0}
    - target: {fileID: 400000, guid: a0bd7523e1445f147886c60f88830141, type: 3}
      propertyPath: m_LocalScale.x
      value: .911665261
      objectReference: {fileID: 0}
    - target: {fileID: 400000, guid: a0bd7523e1445f147886c60f88830141, type: 3}
      propertyPath: m_LocalScale.y
      value: .865921795
      objectReference: {fileID: 0}
    - target: {fileID: 400000, guid: a0bd7523e1445f147886c60f88830141, type: 3}
      propertyPath: m_LocalScale.z
      value: .91166538
      objectReference: {fileID: 0}
    - target: {fileID: 100000, guid: a0bd7523e1445f147886c60f88830141, type: 3}
      propertyPath: m_Name
      value: Pine_tree 1
      objectReference: {fileID: 0}
    m_RemovedComponents: []
  m_ParentPrefab: {fileID: 100100000, guid: a0bd7523e1445f147886c60f88830141, type: 3}
  m_RootGameObject: {fileID: 1415118758}
  m_IsPrefabParent: 0
--- !u!1 &868590487
GameObject:
  m_ObjectHideFlags: 0
  m_PrefabParentObject: {fileID: 100000, guid: 6f73961abc70345418ee60ce980b58ad, type: 3}
  m_PrefabInternal: {fileID: 1508075115}
  serializedVersion: 4
  m_Component:
  - 4: {fileID: 868590490}
  - 33: {fileID: 868590489}
  - 23: {fileID: 868590488}
  m_Layer: 0
  m_Name: 1
  m_TagString: Untagged
  m_Icon: {fileID: 0}
  m_NavMeshLayer: 0
  m_StaticEditorFlags: 0
  m_IsActive: 1
--- !u!23 &868590488
MeshRenderer:
  m_ObjectHideFlags: 0
  m_PrefabParentObject: {fileID: 2300000, guid: 6f73961abc70345418ee60ce980b58ad,
    type: 3}
  m_PrefabInternal: {fileID: 1508075115}
  m_GameObject: {fileID: 868590487}
  m_Enabled: 1
  m_CastShadows: 1
  m_ReceiveShadows: 1
  m_Materials:
  - {fileID: 2100000, guid: a8e15df482483254ab055e6d2b49c24e, type: 2}
  m_SubsetIndices: 
  m_StaticBatchRoot: {fileID: 0}
  m_UseLightProbes: 1
  m_ReflectionProbeUsage: 1
  m_ProbeAnchor: {fileID: 0}
  m_ScaleInLightmap: 1
  m_PreserveUVs: 0
  m_IgnoreNormalsForChartDetection: 0
  m_ImportantGI: 0
  m_MinimumChartSize: 4
  m_AutoUVMaxDistance: 0.5
  m_AutoUVMaxAngle: 89
  m_LightmapParameters: {fileID: 0}
  m_SortingLayerID: 0
  m_SortingOrder: 0
--- !u!33 &868590489
MeshFilter:
  m_ObjectHideFlags: 0
  m_PrefabParentObject: {fileID: 3300000, guid: 6f73961abc70345418ee60ce980b58ad,
    type: 3}
  m_PrefabInternal: {fileID: 1508075115}
  m_GameObject: {fileID: 868590487}
  m_Mesh: {fileID: 4300000, guid: 6f73961abc70345418ee60ce980b58ad, type: 3}
--- !u!4 &868590490
Transform:
  m_ObjectHideFlags: 0
  m_PrefabParentObject: {fileID: 400000, guid: 6f73961abc70345418ee60ce980b58ad, type: 3}
  m_PrefabInternal: {fileID: 1508075115}
  m_GameObject: {fileID: 868590487}
  m_LocalRotation: {x: -0.5000002, y: 0.49999988, z: 0.50000024, w: 0.4999998}
  m_LocalPosition: {x: -0, y: -0.011, z: -0}
  m_LocalScale: {x: 332.23892, y: 332.23935, z: 332.23935}
  m_Children: []
  m_Father: {fileID: 0}
  m_RootOrder: 2
--- !u!1 &878881227
GameObject:
  m_ObjectHideFlags: 0
  m_PrefabParentObject: {fileID: 0}
  m_PrefabInternal: {fileID: 0}
  serializedVersion: 4
  m_Component:
  - 4: {fileID: 878881229}
  - 108: {fileID: 878881228}
  m_Layer: 0
  m_Name: Point light
  m_TagString: Untagged
  m_Icon: {fileID: 0}
  m_NavMeshLayer: 0
  m_StaticEditorFlags: 0
  m_IsActive: 1
--- !u!108 &878881228
Light:
  m_ObjectHideFlags: 0
  m_PrefabParentObject: {fileID: 0}
  m_PrefabInternal: {fileID: 0}
  m_GameObject: {fileID: 878881227}
  m_Enabled: 1
  serializedVersion: 6
  m_Type: 2
  m_Color: {r: 1, g: 0.98985803, b: 0.9632353, a: 1}
  m_Intensity: 8
  m_Range: 5.11
  m_SpotAngle: 30
  m_CookieSize: 10
  m_Shadows:
    m_Type: 0
    m_Resolution: -1
    m_Strength: 1
    m_Bias: 0.05
    m_NormalBias: 0.4
    m_NearPlane: 0.2
  m_Cookie: {fileID: 0}
  m_DrawHalo: 0
  m_Flare: {fileID: 0}
  m_RenderMode: 0
  m_CullingMask:
    serializedVersion: 2
    m_Bits: 4294967295
  m_Lightmapping: 4
  m_BounceIntensity: 0
  m_ShadowRadius: 0
  m_ShadowAngle: 0
  m_AreaSize: {x: 1, y: 1}
--- !u!4 &878881229
Transform:
  m_ObjectHideFlags: 0
  m_PrefabParentObject: {fileID: 0}
  m_PrefabInternal: {fileID: 0}
  m_GameObject: {fileID: 878881227}
  m_LocalRotation: {x: 0, y: 0, z: 0, w: 1}
  m_LocalPosition: {x: -2.44, y: 5.4, z: -3.74}
  m_LocalScale: {x: 1, y: 1, z: 1}
  m_Children: []
  m_Father: {fileID: 0}
  m_RootOrder: 9
--- !u!1 &919137988
GameObject:
  m_ObjectHideFlags: 0
  m_PrefabParentObject: {fileID: 100000, guid: 7d6ba04ff2b713248b1fa30cda241ecc, type: 3}
  m_PrefabInternal: {fileID: 1938847574}
  serializedVersion: 4
  m_Component:
  - 4: {fileID: 919137991}
  - 33: {fileID: 919137990}
  - 23: {fileID: 919137989}
  m_Layer: 0
  m_Name: Rock_3
  m_TagString: Untagged
  m_Icon: {fileID: 0}
  m_NavMeshLayer: 0
  m_StaticEditorFlags: 0
  m_IsActive: 1
--- !u!23 &919137989
MeshRenderer:
  m_ObjectHideFlags: 0
  m_PrefabParentObject: {fileID: 2300000, guid: 7d6ba04ff2b713248b1fa30cda241ecc,
    type: 3}
  m_PrefabInternal: {fileID: 1938847574}
  m_GameObject: {fileID: 919137988}
  m_Enabled: 1
  m_CastShadows: 1
  m_ReceiveShadows: 1
  m_Materials:
  - {fileID: 2100000, guid: c6010fd8a9033e94399bc3b59a4be473, type: 2}
  m_SubsetIndices: 
  m_StaticBatchRoot: {fileID: 0}
  m_UseLightProbes: 1
  m_ReflectionProbeUsage: 1
  m_ProbeAnchor: {fileID: 0}
  m_ScaleInLightmap: 1
  m_PreserveUVs: 0
  m_IgnoreNormalsForChartDetection: 0
  m_ImportantGI: 0
  m_MinimumChartSize: 4
  m_AutoUVMaxDistance: 0.5
  m_AutoUVMaxAngle: 89
  m_LightmapParameters: {fileID: 0}
  m_SortingLayerID: 0
  m_SortingOrder: 0
--- !u!33 &919137990
MeshFilter:
  m_ObjectHideFlags: 0
  m_PrefabParentObject: {fileID: 3300000, guid: 7d6ba04ff2b713248b1fa30cda241ecc,
    type: 3}
  m_PrefabInternal: {fileID: 1938847574}
  m_GameObject: {fileID: 919137988}
  m_Mesh: {fileID: 4300000, guid: 7d6ba04ff2b713248b1fa30cda241ecc, type: 3}
--- !u!4 &919137991
Transform:
  m_ObjectHideFlags: 0
  m_PrefabParentObject: {fileID: 400000, guid: 7d6ba04ff2b713248b1fa30cda241ecc, type: 3}
  m_PrefabInternal: {fileID: 1938847574}
  m_GameObject: {fileID: 919137988}
  m_LocalRotation: {x: 0.000000016246995, y: -0.668874, z: -0.000000014618706, w: 0.74337584}
  m_LocalPosition: {x: 1.585, y: 0, z: -0.168}
  m_LocalScale: {x: 1, y: 1, z: 1}
  m_Children: []
  m_Father: {fileID: 0}
  m_RootOrder: 1
--- !u!1 &939009399
GameObject:
  m_ObjectHideFlags: 0
  m_PrefabParentObject: {fileID: 0}
  m_PrefabInternal: {fileID: 0}
  serializedVersion: 4
  m_Component:
  - 4: {fileID: 939009400}
  m_Layer: 0
  m_Name: Grass
  m_TagString: Untagged
  m_Icon: {fileID: 0}
  m_NavMeshLayer: 0
  m_StaticEditorFlags: 0
  m_IsActive: 1
--- !u!4 &939009400
Transform:
  m_ObjectHideFlags: 0
  m_PrefabParentObject: {fileID: 0}
  m_PrefabInternal: {fileID: 0}
  m_GameObject: {fileID: 939009399}
  m_LocalRotation: {x: 0, y: 0, z: 0, w: 1}
  m_LocalPosition: {x: -0.93423194, y: -1.890171, z: 0.37341046}
  m_LocalScale: {x: 1, y: 1, z: 1}
  m_Children:
  - {fileID: 470899328}
  m_Father: {fileID: 0}
  m_RootOrder: 6
--- !u!1 &1019914782
GameObject:
  m_ObjectHideFlags: 0
  m_PrefabParentObject: {fileID: 0}
  m_PrefabInternal: {fileID: 0}
  serializedVersion: 4
  m_Component:
  - 4: {fileID: 1019914783}
  m_Layer: 0
  m_Name: Rocks
  m_TagString: Untagged
  m_Icon: {fileID: 0}
  m_NavMeshLayer: 0
  m_StaticEditorFlags: 0
  m_IsActive: 1
--- !u!4 &1019914783
Transform:
  m_ObjectHideFlags: 0
  m_PrefabParentObject: {fileID: 0}
  m_PrefabInternal: {fileID: 0}
  m_GameObject: {fileID: 1019914782}
  m_LocalRotation: {x: 0, y: 0, z: 0, w: 1}
  m_LocalPosition: {x: -0.93423194, y: -1.890171, z: 0.37341046}
  m_LocalScale: {x: 1, y: 1, z: 1}
  m_Children: []
  m_Father: {fileID: 0}
  m_RootOrder: 7
--- !u!1001 &1144759545
Prefab:
  m_ObjectHideFlags: 0
  serializedVersion: 2
  m_Modification:
    m_TransformParent: {fileID: 0}
    m_Modifications:
    - target: {fileID: 400000, guid: 9b6c3d01c33718b45bf7737e8c87415d, type: 3}
      propertyPath: m_LocalPosition.x
      value: -.910000026
      objectReference: {fileID: 0}
    - target: {fileID: 400000, guid: 9b6c3d01c33718b45bf7737e8c87415d, type: 3}
      propertyPath: m_LocalPosition.y
      value: 0
      objectReference: {fileID: 0}
    - target: {fileID: 400000, guid: 9b6c3d01c33718b45bf7737e8c87415d, type: 3}
      propertyPath: m_LocalPosition.z
      value: 0
      objectReference: {fileID: 0}
    - target: {fileID: 400000, guid: 9b6c3d01c33718b45bf7737e8c87415d, type: 3}
      propertyPath: m_LocalRotation.x
      value: 0
      objectReference: {fileID: 0}
    - target: {fileID: 400000, guid: 9b6c3d01c33718b45bf7737e8c87415d, type: 3}
      propertyPath: m_LocalRotation.y
      value: 1
      objectReference: {fileID: 0}
    - target: {fileID: 400000, guid: 9b6c3d01c33718b45bf7737e8c87415d, type: 3}
      propertyPath: m_LocalRotation.z
      value: 0
      objectReference: {fileID: 0}
    - target: {fileID: 400000, guid: 9b6c3d01c33718b45bf7737e8c87415d, type: 3}
      propertyPath: m_LocalRotation.w
      value: -1.62920685e-07
      objectReference: {fileID: 0}
    - target: {fileID: 400000, guid: 9b6c3d01c33718b45bf7737e8c87415d, type: 3}
      propertyPath: m_RootOrder
      value: 4
      objectReference: {fileID: 0}
    - target: {fileID: 2300000, guid: 9b6c3d01c33718b45bf7737e8c87415d, type: 3}
      propertyPath: m_Materials.Array.data[0]
      value: 
      objectReference: {fileID: 2100000, guid: 3d92c13a401928e4da7e22e76225a5bc, type: 2}
    - target: {fileID: 2300002, guid: 9b6c3d01c33718b45bf7737e8c87415d, type: 3}
      propertyPath: m_Materials.Array.data[0]
      value: 
      objectReference: {fileID: 2100000, guid: 3d92c13a401928e4da7e22e76225a5bc, type: 2}
    - target: {fileID: 100004, guid: 9b6c3d01c33718b45bf7737e8c87415d, type: 3}
      propertyPath: m_StaticEditorFlags
      value: 0
      objectReference: {fileID: 0}
    - target: {fileID: 100002, guid: 9b6c3d01c33718b45bf7737e8c87415d, type: 3}
      propertyPath: m_StaticEditorFlags
      value: 0
      objectReference: {fileID: 0}
    - target: {fileID: 100000, guid: 9b6c3d01c33718b45bf7737e8c87415d, type: 3}
      propertyPath: m_StaticEditorFlags
      value: 0
      objectReference: {fileID: 0}
    - target: {fileID: 400004, guid: 9b6c3d01c33718b45bf7737e8c87415d, type: 3}
      propertyPath: m_LocalRotation.x
      value: -.76255548
      objectReference: {fileID: 0}
    - target: {fileID: 400004, guid: 9b6c3d01c33718b45bf7737e8c87415d, type: 3}
      propertyPath: m_LocalRotation.w
      value: .646922827
      objectReference: {fileID: 0}
    m_RemovedComponents: []
  m_ParentPrefab: {fileID: 100100000, guid: 9b6c3d01c33718b45bf7737e8c87415d, type: 3}
  m_RootGameObject: {fileID: 1166964128}
  m_IsPrefabParent: 0
--- !u!4 &1144759546
Transform:
  m_ObjectHideFlags: 0
  m_PrefabParentObject: {fileID: 400000, guid: 9b6c3d01c33718b45bf7737e8c87415d, type: 3}
  m_PrefabInternal: {fileID: 1144759545}
  m_GameObject: {fileID: 1166964128}
  m_LocalRotation: {x: 0, y: 1, z: 0, w: -0.00000016292068}
  m_LocalPosition: {x: -0.91, y: 0, z: 0}
  m_LocalScale: {x: 1, y: 1, z: 1}
  m_Children:
  - {fileID: 359984511}
  - {fileID: 1167210598}
  - {fileID: 2040934466}
  m_Father: {fileID: 0}
  m_RootOrder: 5
--- !u!1 &1166964128
GameObject:
  m_ObjectHideFlags: 0
  m_PrefabParentObject: {fileID: 100000, guid: 9b6c3d01c33718b45bf7737e8c87415d, type: 3}
  m_PrefabInternal: {fileID: 1144759545}
  serializedVersion: 4
  m_Component:
  - 4: {fileID: 1144759546}
  m_Layer: 0
  m_Name: Chest
  m_TagString: Untagged
  m_Icon: {fileID: 0}
  m_NavMeshLayer: 0
  m_StaticEditorFlags: 0
  m_IsActive: 1
--- !u!1 &1167210597
GameObject:
  m_ObjectHideFlags: 0
  m_PrefabParentObject: {fileID: 100004, guid: 9b6c3d01c33718b45bf7737e8c87415d, type: 3}
  m_PrefabInternal: {fileID: 1144759545}
  serializedVersion: 4
  m_Component:
  - 4: {fileID: 1167210598}
  - 33: {fileID: 1167210600}
  - 23: {fileID: 1167210599}
  m_Layer: 0
  m_Name: Chest_cover
  m_TagString: Untagged
  m_Icon: {fileID: 0}
  m_NavMeshLayer: 0
  m_StaticEditorFlags: 0
  m_IsActive: 1
--- !u!4 &1167210598
Transform:
  m_ObjectHideFlags: 0
  m_PrefabParentObject: {fileID: 400004, guid: 9b6c3d01c33718b45bf7737e8c87415d, type: 3}
  m_PrefabInternal: {fileID: 1144759545}
  m_GameObject: {fileID: 1167210597}
  m_LocalRotation: {x: -0.7625555, y: 0, z: 0, w: 0.6469228}
  m_LocalPosition: {x: 0, y: 0.5224206, z: -0.36012283}
  m_LocalScale: {x: 1, y: 1, z: 1}
  m_Children: []
  m_Father: {fileID: 1144759546}
  m_RootOrder: 1
--- !u!23 &1167210599
MeshRenderer:
  m_ObjectHideFlags: 0
  m_PrefabParentObject: {fileID: 2300002, guid: 9b6c3d01c33718b45bf7737e8c87415d,
    type: 3}
  m_PrefabInternal: {fileID: 1144759545}
  m_GameObject: {fileID: 1167210597}
  m_Enabled: 1
  m_CastShadows: 1
  m_ReceiveShadows: 1
  m_Materials:
  - {fileID: 2100000, guid: 3d92c13a401928e4da7e22e76225a5bc, type: 2}
  m_SubsetIndices: 
  m_StaticBatchRoot: {fileID: 0}
  m_UseLightProbes: 1
  m_ReflectionProbeUsage: 1
  m_ProbeAnchor: {fileID: 0}
  m_ScaleInLightmap: 1
  m_PreserveUVs: 0
  m_IgnoreNormalsForChartDetection: 0
  m_ImportantGI: 0
  m_MinimumChartSize: 4
  m_AutoUVMaxDistance: 0.5
  m_AutoUVMaxAngle: 89
  m_LightmapParameters: {fileID: 0}
  m_SortingLayerID: 0
  m_SortingOrder: 0
--- !u!33 &1167210600
MeshFilter:
  m_ObjectHideFlags: 0
  m_PrefabParentObject: {fileID: 3300002, guid: 9b6c3d01c33718b45bf7737e8c87415d,
    type: 3}
  m_PrefabInternal: {fileID: 1144759545}
  m_GameObject: {fileID: 1167210597}
  m_Mesh: {fileID: 4300000, guid: 9b6c3d01c33718b45bf7737e8c87415d, type: 3}
--- !u!1 &1415118758
GameObject:
  m_ObjectHideFlags: 0
  m_PrefabParentObject: {fileID: 100000, guid: a0bd7523e1445f147886c60f88830141, type: 3}
  m_PrefabInternal: {fileID: 841636382}
  serializedVersion: 4
  m_Component:
  - 4: {fileID: 1415118761}
  - 33: {fileID: 1415118760}
  - 23: {fileID: 1415118759}
  m_Layer: 0
  m_Name: Pine_tree 1
  m_TagString: Untagged
  m_Icon: {fileID: 0}
  m_NavMeshLayer: 0
  m_StaticEditorFlags: 0
  m_IsActive: 1
--- !u!23 &1415118759
MeshRenderer:
  m_ObjectHideFlags: 0
  m_PrefabParentObject: {fileID: 2300000, guid: a0bd7523e1445f147886c60f88830141,
    type: 3}
  m_PrefabInternal: {fileID: 841636382}
  m_GameObject: {fileID: 1415118758}
  m_Enabled: 1
  m_CastShadows: 1
  m_ReceiveShadows: 1
  m_Materials:
  - {fileID: 2100000, guid: cd07d8a28e2acb9468ecb30a6f45820b, type: 2}
  m_SubsetIndices: 
  m_StaticBatchRoot: {fileID: 0}
  m_UseLightProbes: 1
  m_ReflectionProbeUsage: 1
  m_ProbeAnchor: {fileID: 0}
  m_ScaleInLightmap: 1
  m_PreserveUVs: 0
  m_IgnoreNormalsForChartDetection: 0
  m_ImportantGI: 0
  m_MinimumChartSize: 4
  m_AutoUVMaxDistance: 0.5
  m_AutoUVMaxAngle: 89
  m_LightmapParameters: {fileID: 0}
  m_SortingLayerID: 0
  m_SortingOrder: 0
--- !u!33 &1415118760
MeshFilter:
  m_ObjectHideFlags: 0
  m_PrefabParentObject: {fileID: 3300000, guid: a0bd7523e1445f147886c60f88830141,
    type: 3}
  m_PrefabInternal: {fileID: 841636382}
  m_GameObject: {fileID: 1415118758}
  m_Mesh: {fileID: 4300000, guid: a0bd7523e1445f147886c60f88830141, type: 3}
--- !u!4 &1415118761
Transform:
  m_ObjectHideFlags: 0
  m_PrefabParentObject: {fileID: 400000, guid: a0bd7523e1445f147886c60f88830141, type: 3}
  m_PrefabInternal: {fileID: 841636382}
  m_GameObject: {fileID: 1415118758}
  m_LocalRotation: {x: 0, y: 0.35996363, z: 0, w: 0.93296635}
  m_LocalPosition: {x: -2.8, y: 0, z: 0}
  m_LocalScale: {x: 0.91166526, y: 0.8659218, z: 0.9116654}
  m_Children: []
  m_Father: {fileID: 0}
  m_RootOrder: 4
--- !u!1001 &1508075115
Prefab:
  m_ObjectHideFlags: 0
  serializedVersion: 2
  m_Modification:
    m_TransformParent: {fileID: 0}
    m_Modifications:
    - target: {fileID: 400000, guid: 6f73961abc70345418ee60ce980b58ad, type: 3}
      propertyPath: m_LocalPosition.x
      value: -0
      objectReference: {fileID: 0}
    - target: {fileID: 400000, guid: 6f73961abc70345418ee60ce980b58ad, type: 3}
      propertyPath: m_LocalPosition.y
      value: -.0109999999
      objectReference: {fileID: 0}
    - target: {fileID: 400000, guid: 6f73961abc70345418ee60ce980b58ad, type: 3}
      propertyPath: m_LocalPosition.z
      value: -0
      objectReference: {fileID: 0}
    - target: {fileID: 400000, guid: 6f73961abc70345418ee60ce980b58ad, type: 3}
      propertyPath: m_LocalRotation.x
      value: -.500000179
      objectReference: {fileID: 0}
    - target: {fileID: 400000, guid: 6f73961abc70345418ee60ce980b58ad, type: 3}
      propertyPath: m_LocalRotation.y
      value: .499999881
      objectReference: {fileID: 0}
    - target: {fileID: 400000, guid: 6f73961abc70345418ee60ce980b58ad, type: 3}
      propertyPath: m_LocalRotation.z
      value: .500000238
      objectReference: {fileID: 0}
    - target: {fileID: 400000, guid: 6f73961abc70345418ee60ce980b58ad, type: 3}
      propertyPath: m_LocalRotation.w
      value: .499999791
      objectReference: {fileID: 0}
    - target: {fileID: 400000, guid: 6f73961abc70345418ee60ce980b58ad, type: 3}
      propertyPath: m_RootOrder
      value: 0
      objectReference: {fileID: 0}
    - target: {fileID: 400000, guid: 6f73961abc70345418ee60ce980b58ad, type: 3}
      propertyPath: m_LocalScale.x
      value: 332.238922
      objectReference: {fileID: 0}
    - target: {fileID: 400000, guid: 6f73961abc70345418ee60ce980b58ad, type: 3}
      propertyPath: m_LocalScale.y
      value: 332.239349
      objectReference: {fileID: 0}
    - target: {fileID: 400000, guid: 6f73961abc70345418ee60ce980b58ad, type: 3}
      propertyPath: m_LocalScale.z
      value: 332.239349
      objectReference: {fileID: 0}
    - target: {fileID: 2300000, guid: 6f73961abc70345418ee60ce980b58ad, type: 3}
      propertyPath: m_Materials.Array.data[0]
      value: 
      objectReference: {fileID: 2100000, guid: a8e15df482483254ab055e6d2b49c24e, type: 2}
    m_RemovedComponents: []
  m_ParentPrefab: {fileID: 100100000, guid: 6f73961abc70345418ee60ce980b58ad, type: 3}
  m_RootGameObject: {fileID: 868590487}
  m_IsPrefabParent: 0
--- !u!1 &1649259512
GameObject:
  m_ObjectHideFlags: 0
  m_PrefabParentObject: {fileID: 100000, guid: 12f0ed80d834e6246b96b9cf113fedc3, type: 3}
  m_PrefabInternal: {fileID: 638350556}
  serializedVersion: 4
  m_Component:
  - 4: {fileID: 1649259515}
  - 33: {fileID: 1649259514}
  - 23: {fileID: 1649259513}
  m_Layer: 0
  m_Name: Rock_4
  m_TagString: Untagged
  m_Icon: {fileID: 0}
  m_NavMeshLayer: 0
  m_StaticEditorFlags: 0
  m_IsActive: 1
--- !u!23 &1649259513
MeshRenderer:
  m_ObjectHideFlags: 0
  m_PrefabParentObject: {fileID: 2300000, guid: 12f0ed80d834e6246b96b9cf113fedc3,
    type: 3}
  m_PrefabInternal: {fileID: 638350556}
  m_GameObject: {fileID: 1649259512}
  m_Enabled: 1
  m_CastShadows: 1
  m_ReceiveShadows: 1
  m_Materials:
  - {fileID: 2100000, guid: c6010fd8a9033e94399bc3b59a4be473, type: 2}
  m_SubsetIndices: 
  m_StaticBatchRoot: {fileID: 0}
  m_UseLightProbes: 1
  m_ReflectionProbeUsage: 1
  m_ProbeAnchor: {fileID: 0}
  m_ScaleInLightmap: 1
  m_PreserveUVs: 0
  m_IgnoreNormalsForChartDetection: 0
  m_ImportantGI: 0
  m_MinimumChartSize: 4
  m_AutoUVMaxDistance: 0.5
  m_AutoUVMaxAngle: 89
  m_LightmapParameters: {fileID: 0}
  m_SortingLayerID: 0
  m_SortingOrder: 0
--- !u!33 &1649259514
MeshFilter:
  m_ObjectHideFlags: 0
  m_PrefabParentObject: {fileID: 3300000, guid: 12f0ed80d834e6246b96b9cf113fedc3,
    type: 3}
  m_PrefabInternal: {fileID: 638350556}
  m_GameObject: {fileID: 1649259512}
  m_Mesh: {fileID: 4300000, guid: 12f0ed80d834e6246b96b9cf113fedc3, type: 3}
--- !u!4 &1649259515
Transform:
  m_ObjectHideFlags: 0
  m_PrefabParentObject: {fileID: 400000, guid: 12f0ed80d834e6246b96b9cf113fedc3, type: 3}
  m_PrefabInternal: {fileID: 638350556}
  m_GameObject: {fileID: 1649259512}
  m_LocalRotation: {x: 0.000000021855694, y: 0, z: -0, w: 1}
  m_LocalPosition: {x: 0.335, y: 0, z: -0.05}
  m_LocalScale: {x: 1, y: 1, z: 1}
  m_Children: []
  m_Father: {fileID: 0}
  m_RootOrder: 3
--- !u!1 &1763573927
GameObject:
  m_ObjectHideFlags: 0
  m_PrefabParentObject: {fileID: 0}
  m_PrefabInternal: {fileID: 0}
  serializedVersion: 4
  m_Component:
  - 4: {fileID: 1763573932}
  - 20: {fileID: 1763573931}
  - 92: {fileID: 1763573930}
  - 124: {fileID: 1763573929}
  - 81: {fileID: 1763573928}
  m_Layer: 0
  m_Name: Main Camera
  m_TagString: MainCamera
  m_Icon: {fileID: 0}
  m_NavMeshLayer: 0
  m_StaticEditorFlags: 0
  m_IsActive: 1
--- !u!81 &1763573928
AudioListener:
  m_ObjectHideFlags: 0
  m_PrefabParentObject: {fileID: 0}
  m_PrefabInternal: {fileID: 0}
  m_GameObject: {fileID: 1763573927}
  m_Enabled: 1
--- !u!124 &1763573929
Behaviour:
  m_ObjectHideFlags: 0
  m_PrefabParentObject: {fileID: 0}
  m_PrefabInternal: {fileID: 0}
  m_GameObject: {fileID: 1763573927}
  m_Enabled: 1
--- !u!92 &1763573930
Behaviour:
  m_ObjectHideFlags: 0
  m_PrefabParentObject: {fileID: 0}
  m_PrefabInternal: {fileID: 0}
  m_GameObject: {fileID: 1763573927}
  m_Enabled: 1
--- !u!20 &1763573931
Camera:
  m_ObjectHideFlags: 0
  m_PrefabParentObject: {fileID: 0}
  m_PrefabInternal: {fileID: 0}
  m_GameObject: {fileID: 1763573927}
  m_Enabled: 1
  serializedVersion: 2
  m_ClearFlags: 1
  m_BackGroundColor: {r: 0.40381703, g: 0.46695685, b: 0.5661765, a: 0.019607844}
  m_NormalizedViewPortRect:
    serializedVersion: 2
    x: 0
    y: 0
    width: 1
    height: 1
  near clip plane: 0.3
  far clip plane: 1000
  field of view: 60
  orthographic: 0
  orthographic size: 5
  m_Depth: -1
  m_CullingMask:
    serializedVersion: 2
    m_Bits: 4294967295
  m_RenderingPath: -1
  m_TargetTexture: {fileID: 0}
  m_TargetDisplay: 0
  m_TargetEye: 3
  m_HDR: 0
  m_OcclusionCulling: 1
  m_StereoConvergence: 10
  m_StereoSeparation: 0.022
  m_StereoMirrorMode: 0
--- !u!4 &1763573932
Transform:
  m_ObjectHideFlags: 0
  m_PrefabParentObject: {fileID: 0}
  m_PrefabInternal: {fileID: 0}
  m_GameObject: {fileID: 1763573927}
  m_LocalRotation: {x: 0.18515365, y: 0, z: 0, w: 0.98270965}
  m_LocalPosition: {x: -0.61, y: 4.44, z: -5.47}
  m_LocalScale: {x: 1, y: 1, z: 1}
  m_Children: []
  m_Father: {fileID: 0}
  m_RootOrder: 10
--- !u!1001 &1938847574
Prefab:
  m_ObjectHideFlags: 0
  serializedVersion: 2
  m_Modification:
    m_TransformParent: {fileID: 0}
    m_Modifications:
    - target: {fileID: 400000, guid: 7d6ba04ff2b713248b1fa30cda241ecc, type: 3}
      propertyPath: m_LocalPosition.x
      value: 1.58500004
      objectReference: {fileID: 0}
    - target: {fileID: 400000, guid: 7d6ba04ff2b713248b1fa30cda241ecc, type: 3}
      propertyPath: m_LocalPosition.y
      value: 0
      objectReference: {fileID: 0}
    - target: {fileID: 400000, guid: 7d6ba04ff2b713248b1fa30cda241ecc, type: 3}
      propertyPath: m_LocalPosition.z
      value: -.167999998
      objectReference: {fileID: 0}
    - target: {fileID: 400000, guid: 7d6ba04ff2b713248b1fa30cda241ecc, type: 3}
      propertyPath: m_LocalRotation.x
      value: 1.62469949e-08
      objectReference: {fileID: 0}
    - target: {fileID: 400000, guid: 7d6ba04ff2b713248b1fa30cda241ecc, type: 3}
      propertyPath: m_LocalRotation.y
      value: -.668874025
      objectReference: {fileID: 0}
    - target: {fileID: 400000, guid: 7d6ba04ff2b713248b1fa30cda241ecc, type: 3}
      propertyPath: m_LocalRotation.z
      value: -1.46187062e-08
      objectReference: {fileID: 0}
    - target: {fileID: 400000, guid: 7d6ba04ff2b713248b1fa30cda241ecc, type: 3}
      propertyPath: m_LocalRotation.w
      value: .743375838
      objectReference: {fileID: 0}
    - target: {fileID: 400000, guid: 7d6ba04ff2b713248b1fa30cda241ecc, type: 3}
      propertyPath: m_RootOrder
      value: 1
      objectReference: {fileID: 0}
    - target: {fileID: 2300000, guid: 7d6ba04ff2b713248b1fa30cda241ecc, type: 3}
      propertyPath: m_Materials.Array.data[0]
      value: 
      objectReference: {fileID: 2100000, guid: c6010fd8a9033e94399bc3b59a4be473, type: 2}
    m_RemovedComponents: []
  m_ParentPrefab: {fileID: 100100000, guid: 7d6ba04ff2b713248b1fa30cda241ecc, type: 3}
  m_RootGameObject: {fileID: 919137988}
  m_IsPrefabParent: 0
--- !u!1 &2040934464
GameObject:
  m_ObjectHideFlags: 0
  m_PrefabParentObject: {fileID: 0}
  m_PrefabInternal: {fileID: 0}
  serializedVersion: 4
  m_Component:
  - 4: {fileID: 2040934466}
  - 108: {fileID: 2040934465}
  m_Layer: 0
  m_Name: Point light 1
  m_TagString: Untagged
  m_Icon: {fileID: 0}
  m_NavMeshLayer: 0
  m_StaticEditorFlags: 0
  m_IsActive: 1
--- !u!108 &2040934465
Light:
  m_ObjectHideFlags: 0
  m_PrefabParentObject: {fileID: 0}
  m_PrefabInternal: {fileID: 0}
  m_GameObject: {fileID: 2040934464}
  m_Enabled: 1
  serializedVersion: 6
  m_Type: 2
  m_Color: {r: 1, g: 0.8039216, b: 0, a: 1}
  m_Intensity: 1.5
  m_Range: 2
  m_SpotAngle: 30
  m_CookieSize: 10
  m_Shadows:
    m_Type: 2
    m_Resolution: -1
    m_Strength: 0
    m_Bias: 0.05
    m_NormalBias: 0.4
    m_NearPlane: 0.2
  m_Cookie: {fileID: 0}
  m_DrawHalo: 0
  m_Flare: {fileID: 0}
  m_RenderMode: 0
  m_CullingMask:
    serializedVersion: 2
    m_Bits: 4294967295
  m_Lightmapping: 4
  m_BounceIntensity: 0
  m_ShadowRadius: 0
  m_ShadowAngle: 0
  m_AreaSize: {x: 1, y: 1}
--- !u!4 &2040934466
Transform:
  m_ObjectHideFlags: 0
  m_PrefabParentObject: {fileID: 0}
  m_PrefabInternal: {fileID: 0}
  m_GameObject: {fileID: 2040934464}
  m_LocalRotation: {x: 0, y: 0.9990026, z: 0, w: 0.044653274}
  m_LocalPosition: {x: 0.019028055, y: 0.89, z: 0.011744462}
  m_LocalScale: {x: 1, y: 1, z: 1}
  m_Children: []
  m_Father: {fileID: 1144759546}
  m_RootOrder: 2
--- !u!1 &2070428048
GameObject:
  m_ObjectHideFlags: 0
  m_PrefabParentObject: {fileID: 0}
  m_PrefabInternal: {fileID: 0}
  serializedVersion: 4
  m_Component:
  - 4: {fileID: 2070428050}
  - 108: {fileID: 2070428049}
  m_Layer: 0
  m_Name: Point light 1
  m_TagString: Untagged
  m_Icon: {fileID: 0}
  m_NavMeshLayer: 0
  m_StaticEditorFlags: 0
  m_IsActive: 1
--- !u!108 &2070428049
Light:
  m_ObjectHideFlags: 0
  m_PrefabParentObject: {fileID: 0}
  m_PrefabInternal: {fileID: 0}
  m_GameObject: {fileID: 2070428048}
  m_Enabled: 1
  serializedVersion: 6
  m_Type: 2
  m_Color: {r: 1, g: 0.98985803, b: 0.9632353, a: 1}
  m_Intensity: 8
  m_Range: 1.6
  m_SpotAngle: 30
  m_CookieSize: 10
  m_Shadows:
    m_Type: 0
    m_Resolution: -1
    m_Strength: 1
    m_Bias: 0.05
    m_NormalBias: 0.4
    m_NearPlane: 0.2
  m_Cookie: {fileID: 0}
  m_DrawHalo: 0
  m_Flare: {fileID: 0}
  m_RenderMode: 0
  m_CullingMask:
    serializedVersion: 2
    m_Bits: 4294967295
  m_Lightmapping: 4
  m_BounceIntensity: 0
  m_ShadowRadius: 0
  m_ShadowAngle: 0
  m_AreaSize: {x: 1, y: 1}
--- !u!4 &2070428050
Transform:
  m_ObjectHideFlags: 0
  m_PrefabParentObject: {fileID: 0}
  m_PrefabInternal: {fileID: 0}
  m_GameObject: {fileID: 2070428048}
  m_LocalRotation: {x: 0, y: 0, z: 0, w: 1}
  m_LocalPosition: {x: 0.56, y: 1.519, z: -0.257}
  m_LocalScale: {x: 1, y: 1, z: 1}
  m_Children: []
  m_Father: {fileID: 0}
  m_RootOrder: 0
