%YAML 1.1
%TAG !u! tag:unity3d.com,2011:
--- !u!1 &144188
GameObject:
  m_ObjectHideFlags: 0
  m_PrefabParentObject: {fileID: 0}
  m_PrefabInternal: {fileID: 100100000}
  serializedVersion: 4
  m_Component:
  - 4: {fileID: 485662}
  - 114: {fileID: 11441392}
  m_Layer: 0
  m_Name: Small Group
  m_TagString: Untagged
  m_Icon: {fileID: 0}
  m_NavMeshLayer: 0
  m_StaticEditorFlags: 0
  m_IsActive: 1
--- !u!4 &485662
Transform:
  m_ObjectHideFlags: 1
  m_PrefabParentObject: {fileID: 0}
  m_PrefabInternal: {fileID: 100100000}
  m_GameObject: {fileID: 144188}
  m_LocalRotation: {x: 0, y: 0, z: 0, w: 1}
  m_LocalPosition: {x: 0, y: 0, z: 0}
  m_LocalScale: {x: 1, y: 1, z: 1}
  m_Children: []
  m_Father: {fileID: 0}
  m_RootOrder: 0
--- !u!114 &11441392
MonoBehaviour:
  m_ObjectHideFlags: 1
  m_PrefabParentObject: {fileID: 0}
  m_PrefabInternal: {fileID: 100100000}
  m_GameObject: {fileID: 144188}
  m_Enabled: 1
  m_EditorHideFlags: 0
  m_Script: {fileID: 11500000, guid: e04a7e46d39c715498a04ab475edbd05, type: 3}
  m_Name: 
  m_EditorClassIdentifier: 
  spawnChance: 1
  groupSize: 0
  minGroupCount: 1
  maxGroupCount: 2
  minGroupSpeed: 10
  maxGroupSpeed: 20
  minPercentNest: 1
  maxPercentNest: 1
  minNodeCount: 1
  maxNodeCount: 4
  minNodeConcentration: 1
  maxNodeConcentration: 1
  minNodeDistance: 60
  maxNodeDistance: 60
  minNodeStrength: 8
  maxNodeStrength: 14
  minNodeDecay: 1
  maxNodeDecay: 1
--- !u!1001 &100100000
Prefab:
  m_ObjectHideFlags: 1
  serializedVersion: 2
  m_Modification:
    m_TransformParent: {fileID: 0}
    m_Modifications:
    - target: {fileID: 0}
      propertyPath: spawnChance
      value: 1
      objectReference: {fileID: 0}
    - target: {fileID: 0}
      propertyPath: minGroupCount
      value: 1
      objectReference: {fileID: 0}
    - target: {fileID: 0}
      propertyPath: maxGroupCount
      value: 2
      objectReference: {fileID: 0}
    - target: {fileID: 0}
      propertyPath: minGroupSpeed
      value: 10
      objectReference: {fileID: 0}
    - target: {fileID: 0}
      propertyPath: maxGroupSpeed
      value: 20
      objectReference: {fileID: 0}
    - target: {fileID: 0}
      propertyPath: minNodeCount
      value: 1
      objectReference: {fileID: 0}
    - target: {fileID: 0}
      propertyPath: maxNodeCount
      value: 4
      objectReference: {fileID: 0}
    - target: {fileID: 0}
      propertyPath: minNodeStrength
      value: 8
      objectReference: {fileID: 0}
    - target: {fileID: 0}
      propertyPath: maxNodeStrength
      value: 14
      objectReference: {fileID: 0}
    - target: {fileID: 0}
      propertyPath: minNodeRange
      value: 3
      objectReference: {fileID: 0}
    - target: {fileID: 0}
      propertyPath: maxNodeRange
      value: 3
      objectReference: {fileID: 0}
    - target: {fileID: 0}
      propertyPath: minNodeDecay
      value: 1
      objectReference: {fileID: 0}
    - target: {fileID: 0}
      propertyPath: maxNodeDecay
      value: 1
      objectReference: {fileID: 0}
    - target: {fileID: 0}
      propertyPath: maxNodeConcentration
      value: 1
      objectReference: {fileID: 0}
    - target: {fileID: 0}
      propertyPath: minNodeRangeMultiplier
      value: 1
      objectReference: {fileID: 0}
    - target: {fileID: 0}
      propertyPath: maxNodeRangeMultiplier
      value: 1
      objectReference: {fileID: 0}
    - target: {fileID: 0}
      propertyPath: minNodeConcentration
      value: 1
      objectReference: {fileID: 0}
    - target: {fileID: 0}
      propertyPath: minNodeDistance
      value: 60
      objectReference: {fileID: 0}
    - target: {fileID: 0}
      propertyPath: maxNodeDistance
      value: 60
      objectReference: {fileID: 0}
    - target: {fileID: 0}
      propertyPath: maxPercentNest
      value: 1
      objectReference: {fileID: 0}
    - target: {fileID: 0}
      propertyPath: minPercentNest
      value: 1
      objectReference: {fileID: 0}
    m_RemovedComponents: []
  m_ParentPrefab: {fileID: 0}
  m_RootGameObject: {fileID: 144188}
  m_IsPrefabParent: 1
