%YAML 1.1
%TAG !u! tag:unity3d.com,2011:
--- !u!1 &134446
GameObject:
  m_ObjectHideFlags: 0
  m_PrefabParentObject: {fileID: 0}
  m_PrefabInternal: {fileID: 100100000}
  serializedVersion: 4
  m_Component:
  - 4: {fileID: 415254}
  - 114: {fileID: 11409736}
  m_Layer: 0
  m_Name: Obsidian
  m_TagString: Untagged
  m_Icon: {fileID: 0}
  m_NavMeshLayer: 0
  m_StaticEditorFlags: 0
  m_IsActive: 1
--- !u!4 &415254
Transform:
  m_ObjectHideFlags: 1
  m_PrefabParentObject: {fileID: 0}
  m_PrefabInternal: {fileID: 100100000}
  m_GameObject: {fileID: 134446}
  m_LocalRotation: {x: 0, y: 0, z: 0, w: 1}
  m_LocalPosition: {x: 0, y: 0, z: 0}
  m_LocalScale: {x: 1, y: 1, z: 1}
  m_Children: []
  m_Father: {fileID: 0}
  m_RootOrder: 0
--- !u!114 &11409736
MonoBehaviour:
  m_ObjectHideFlags: 1
  m_PrefabParentObject: {fileID: 0}
  m_PrefabInternal: {fileID: 100100000}
  m_GameObject: {fileID: 134446}
  m_Enabled: 1
  m_EditorHideFlags: 0
  m_Script: {fileID: 11500000, guid: f368f3a99faed074584ba83363376dbd, type: 3}
  m_Name: 
  m_EditorClassIdentifier: 
  resource: 15
  resourceType: 3
  sprite: {fileID: 21300004, guid: 3294e01674265a444bea8092f8cdfdb6, type: 3}
  model: {fileID: 168080, guid: 6a4165a6aec86c148aa6d58023645fc2, type: 2}
  spawnBlock: {fileID: 6580756, guid: 6a4165a6aec86c148aa6d58023645fc2, type: 2}
  spawnLimit: 4
  minLifetime: 800
  maxLifetime: 900
  spawnChance: 2
  useAirPressure: 0
  useElectromagnetism: 1
  useHumidity: 0
  usePrecipitation: 1
  useSunExposure: 1
  useTemperature: 1
  useWindSpeed: 0
  minAirPressure: 5
  maxAirPressure: 10
  minElectromagnetism: 75
  maxElectromagnetism: 100
  minHumidity: 0
  maxHumidity: 0
  minPrecipitation: 10
  maxPrecipitation: 40
  minSunExposure: 75
  maxSunExposure: 100
  minTemperature: 80
  maxTemperature: 100
  minWindSpeed: 0
  maxWindSpeed: 0
--- !u!1001 &100100000
Prefab:
  m_ObjectHideFlags: 1
  serializedVersion: 2
  m_Modification:
    m_TransformParent: {fileID: 0}
    m_Modifications: []
    m_RemovedComponents: []
  m_ParentPrefab: {fileID: 0}
  m_RootGameObject: {fileID: 134446}
  m_IsPrefabParent: 1
