%YAML 1.1
%TAG !u! tag:unity3d.com,2011:
--- !u!1 &172172
GameObject:
  m_ObjectHideFlags: 0
  m_PrefabParentObject: {fileID: 0}
  m_PrefabInternal: {fileID: 100100000}
  serializedVersion: 4
  m_Component:
  - 4: {fileID: 491752}
  - 114: {fileID: 11486228}
  m_Layer: 0
  m_Name: Air Pressure Config
  m_TagString: Untagged
  m_Icon: {fileID: 0}
  m_NavMeshLayer: 0
  m_StaticEditorFlags: 0
  m_IsActive: 1
--- !u!4 &491752
Transform:
  m_ObjectHideFlags: 1
  m_PrefabParentObject: {fileID: 0}
  m_PrefabInternal: {fileID: 100100000}
  m_GameObject: {fileID: 172172}
  m_LocalRotation: {x: 0, y: 0, z: 0, w: 1}
  m_LocalPosition: {x: 0, y: 0, z: 0}
  m_LocalScale: {x: 1, y: 1, z: 1}
  m_Children: []
  m_Father: {fileID: 0}
  m_RootOrder: 0
--- !u!114 &11486228
MonoBehaviour:
  m_ObjectHideFlags: 1
  m_PrefabParentObject: {fileID: 0}
  m_PrefabInternal: {fileID: 100100000}
  m_GameObject: {fileID: 172172}
  m_Enabled: 1
  m_EditorHideFlags: 0
  m_Script: {fileID: 11500000, guid: 655986811446ac148ab2adb6c8742b1c, type: 3}
  m_Name: 
  m_EditorClassIdentifier: 
  attribute: 0
  groupConfigs:
  - {fileID: 11441392, guid: ea4f638ef371f0f4dbfb361572bef565, type: 2}
  - {fileID: 11441392, guid: 3e354c858ab1df04eb5d66ea931fd91e, type: 2}
  - {fileID: 11441392, guid: 23b71a8f4769d2545a04f59068280d64, type: 2}
--- !u!1001 &100100000
Prefab:
  m_ObjectHideFlags: 1
  serializedVersion: 2
  m_Modification:
    m_TransformParent: {fileID: 0}
    m_Modifications:
    - target: {fileID: 0}
      propertyPath: groupConfigs.Array.size
      value: 3
      objectReference: {fileID: 0}
    - target: {fileID: 0}
      propertyPath: groupConfigs.Array.data[0]
      value: 
      objectReference: {fileID: 11441392, guid: ea4f638ef371f0f4dbfb361572bef565,
        type: 2}
    - target: {fileID: 0}
      propertyPath: attribute
      value: 0
      objectReference: {fileID: 0}
    - target: {fileID: 0}
      propertyPath: groupConfigs.Array.data[1]
      value: 
      objectReference: {fileID: 11441392, guid: 3e354c858ab1df04eb5d66ea931fd91e,
        type: 2}
    - target: {fileID: 0}
      propertyPath: groupConfigs.Array.data[2]
      value: 
      objectReference: {fileID: 11441392, guid: 23b71a8f4769d2545a04f59068280d64,
        type: 2}
    m_RemovedComponents: []
  m_ParentPrefab: {fileID: 0}
  m_RootGameObject: {fileID: 172172}
  m_IsPrefabParent: 1
